{
  "creator_userid": "6003",
  "template_id": "3TmAcJCPw7hu8W48uDyv3HfYRXAQtWqZn2uuZtaG",
  "use_template_approver": 0,
  "approver": [{
    "attr": 1,
    "userid": ["4713", "T-18797812940", "6003", "5788"]
  }],
  "notifyer": ["4713", "T-18797812940", "6003", "5788"],
  "notify_type": 1,
  "apply_data": {
    "contents": [{
      "control": "Table",
      "id": "Table-1574682630602",
      "title": [{
          "text": "快递明细",
          "lang": "zh_CN"
        },
        {
          "text": "Shipping details",
          "lang": "en"
        }
      ],
      "value": {
        "children": [{
          "list": [{
            "control": "Contact",
            "id": "Contact-1591587940715",
            "title": [{
              "text": "寄件人",
              "lang": "zh_CN"
            }],
            "value": {
              "members": [{
                "userid": "6003",
                "name": "秦波"
              }]
            }
          }, {
            "control": "Contact",
            "id": "Contact-1591254285597",
            "title": [{
              "text": "寄件部门（一级部门）",
              "lang": "zh_CN"
            }],
            "value": {
              "departments": [{
                "openapi_id": "151",
                "name": "架构中心"
              }]
            }
          }, {
            "control": "Selector",
            "id": "Selector-1574682658938",
            "title": [{
              "text": "物品类型",
              "lang": "zh_CN"
            }],
            "value": {
              "selector": {
                "type": "single",
                "options": [{
                  "key": "option-1574682658938"
                }]
              }
            }
          }, {
            "control": "Selector",
            "id": "Selector-1591254102892",
            "title": [{
              "text": "快递公司",
              "lang": "zh_CN"
            }],
            "value": {
              "selector": {
                "type": "single",
                "options": [{
                  "key": "option-1591254102893"
                }]
              }
            }
          }, {
            "control": "Text",
            "id": "Text-1574682833705",
            "title": [{
              "text": "快递单号",
              "lang": "zh_CN"
            }],
            "value": {
              "text": "1084102104005"
            }
          }, {
            "control": "Selector",
            "id": "Selector-1591254709985",
            "title": [{
              "text": "寄件楼层",
              "lang": "zh_CN"
            }],
            "value": {
              "selector": {
                "type": "single",
                "options": [{
                  "key": "option-1591254709985"
                }]
              }
            }
          }, {
            "control": "Textarea",
            "id": "Textarea-1574682717744",
            "title": [{
              "text": "备注",
              "lang": "zh_CN"
            }],
            "value": {
              "text": ""
            }
          }]
        }]
      }
    }]
  },
  "summary_list": [{
      "summary_info": [{
        "text": "摘要第1行",
        "lang": "zh_CN"
      }]
    },
    {
      "summary_info": [{
        "text": "摘要第2行",
        "lang": "zh_CN"
      }]
    },
    {
      "summary_info": [{
        "text": "摘要第3行",
        "lang": "zh_CN"
      }]
    }
  ]
}